{
  "type" : "image",
  "data" : {
    "orientation" : 1,
    "alpha" : true,
    "width" : 839,
    "resolution" : {
      "x" : 144,
      "y" : 144,
      "unit" : "dpi"
    },
    "height" : 468
  }
}